…
### Extracting URLs

To grab URLs, run the followings:

``` r
issue.urls <- issues.root.html %>%
  html_nodes(".journal-preview") %>% # . indicates a class name
  html_nodes("a") %>% # all links
  html_attr("href") %>% # extract the links specified by `href`
  as_data_frame() %>% # convert the links to a data frame object for filtering
print(issue.urls$value) # since issue.urls is a data.frame, need to extract $value
```

    ## # A tibble: 139 x 1
    ##    value      
    ##    <chr>      
    ##  1 /issues/526
    ##  2 /issues/523
    ##  3 /issues/519
    ##  4 /issues/517
    ##  5 /issues/513
    ##  6 /issues/510
    ##  7 /issues/503
    ##  8 /issues/498
    ##  9 /issues/494
    ## 10 /issues/491
    ## # ... with 129 more rows
…
### Extracting years of publication

We need years of publications for word clouds too. Note that the texts for the links all contain years of publication too! To grab the texts for the links, run the followings:

``` r
issue.years <- issues.root.html %>%
  html_nodes(".journal-preview") %>% # . indicates a class name
  html_nodes("a") %>% # all links
  html_text %>% # extract the links specified by `href`
  as_data_frame() %>% # convert the links to a data frame object for filtering
print(issue.years$value)
```

    ## # A tibble: 139 x 1
    ##    value                           
    ##    <chr>                           
    ##  1 November 2018 (Vol. 108, No.11 )
    ##  2 October 2018 (Vol. 108, No.10 ) 
    ##  3 September 2018 (Vol. 108, No.9 )
    ##  4 August 2018 (Vol. 108, No.8 )   
    ##  5 July 2018 (Vol. 108, No.7 )     
    ##  6 June 2018 (Vol. 108, No.6 )     
    ##  7 April 2018 (Vol. 108, No.4-5 )  
    ##  8 March 2018 (Vol. 108, No.3 )    
    ##  9 February 2018 (Vol. 108, No.2 ) 
    ## 10 January 2018 (Vol. 108, No.1 )  
    ## # ... with 129 more rows
…
